[{
  "relation": ["delegate_permission/common.handle_all_urls"],
  "target": {
    "namespace": "android_app",
    "package_name": "de.chagemann.regexcrossword",
    "sha256_cert_fingerprints":
    ["A6:F1:69:4F:56:34:57:9C:AC:E1:F2:6B:1C:4B:13:F3:ED:CB:50:EB:86:7A:CA:7B:6A:07:B8:DC:8A:50:A7:32"]
  }
}]